{"pageProps":{"tags":[{"name":"development","count":12},{"name":"note","count":5},{"name":"javascript","count":2},{"name":"blog","count":2},{"name":"hugo","count":2},{"name":"github","count":1},{"name":"ci","count":1},{"name":"react","count":1},{"name":"golang","count":1},{"name":"azure","count":1}],"page":1,"hasPrev":false,"hasNext":true},"__N_SSG":true}