{"pageProps":{"tags":[{"name":"development","count":12},{"name":"note","count":5},{"name":"javascript","count":2},{"name":"blog","count":2},{"name":"hugo","count":2}],"page":1,"hasPrev":false,"hasNext":true},"__N_SSG":true}